…
-   Describe the raw data. Create a city\_state variable (e.g. “Baltimore, MD”) and then summarize within cities to obtain the total number of homicides and the number of unsolved homicides (those for which the disposition is “Closed without arrest” or “Open/No arrest”).

This is a dataset collected by Washington Post regarding criminal homicide over the past years in 50 America cities.The raw data contains 52179 rows/observations, and 12 columns/variables. Variables mainly includes the victims' personal info such as name, race and sex, as well as the location info of the cases, including city, state and coordinates.

``` r
data_p2_city =  
  mutate(data_p2, city_state = paste(city, state, sep = ', ')) %>% 
  group_by(., city_state) %>% 
  summarize(., case_number = n(),
               case_unsolved = 
               sum(disposition == 'Closed without arrest' | disposition == 'Open/No arrest'))
data_p2_city
```

    ## # A tibble: 51 x 3
    ##    city_state      case_number case_unsolved
    ##    <chr>                 <int>         <int>
    ##  1 Albuquerque, NM         378           146
    ##  2 Atlanta, GA             973           373
    ##  3 Baltimore, MD          2827          1825
    ##  4 Baton Rouge, LA         424           196
    ##  5 Birmingham, AL          800           347
    ##  6 Boston, MA              614           310
    ##  7 Buffalo, NY             521           319
    ##  8 Charlotte, NC           687           206
    ##  9 Chicago, IL            5535          4073
    ## 10 Cincinnati, OH          694           309
    ## # ... with 41 more rows
…
``` r
city_prop_test = 
  mutate(data_p2_city, prop_test = map2(.x = case_number, .y = case_unsolved,
                             ~prop.test(.y, .x) %>% broom::tidy())) %>%
  unnest() %>% 
  select(., city_state, case_number, case_unsolved, estimate, conf.low, conf.high)
```

    ## Warning in prop.test(.y, .x): Chi-squared approximation may be incorrect

``` r
city_prop_test
```

    ## # A tibble: 51 x 6
    ##    city_state      case_number case_unsolved estimate conf.low conf.high
    ##    <chr>                 <int>         <int>    <dbl>    <dbl>     <dbl>
    ##  1 Albuquerque, NM         378           146    0.386    0.337     0.438
    ##  2 Atlanta, GA             973           373    0.383    0.353     0.415
    ##  3 Baltimore, MD          2827          1825    0.646    0.628     0.663
    ##  4 Baton Rouge, LA         424           196    0.462    0.414     0.511
    ##  5 Birmingham, AL          800           347    0.434    0.399     0.469
    ##  6 Boston, MA              614           310    0.505    0.465     0.545
    ##  7 Buffalo, NY             521           319    0.612    0.569     0.654
    ##  8 Charlotte, NC           687           206    0.300    0.266     0.336
    ##  9 Chicago, IL            5535          4073    0.736    0.724     0.747
    ## 10 Cincinnati, OH          694           309    0.445    0.408     0.483
    ## # ... with 41 more rows
